counter/run/sim.log
# vsim -c tb -do "run -all;quit" -l sim.log 
# Start time: 13:46:17 on Sep 26,2018
# ** Note: (vsim-8009) Loading existing optimized design _opt
# 
# //  Questa Sim-64
# //  Version 10.4e win64 Apr  9 2016
# //
# //  Copyright 1991-2016 Mentor Graphics Corporation
# //  All Rights Reserved.
# //
# //  THIS WORK CONTAINS TRADE SECRET AND PROPRIETARY INFORMATION
# //  WHICH IS THE PROPERTY OF MENTOR GRAPHICS CORPORATION OR ITS
# //  LICENSORS AND IS SUBJECT TO LICENSE TERMS.
# //  THIS DOCUMENT CONTAINS TRADE SECRETS AND COMMERCIAL OR FINANCIAL
# //  INFORMATION THAT ARE PRIVILEGED, CONFIDENTIAL, AND EXEMPT FROM
# //  DISCLOSURE UNDER THE FREEDOM OF INFORMATION ACT, 5 U.S.C. SECTION 552.
# //  FURTHERMORE, THIS INFORMATION IS PROHIBITED FROM DISCLOSURE UNDER
# //  THE TRADE SECRETS ACT, 18 U.S.C. SECTION 1905.
# //
# Loading work.tb(fast)
# run -all
# tb.monitor_blk time=0, clk=0,	rst=x,	en=x,	count=  x
# tb.monitor_blk time=5, clk=1,	rst=x,	en=x,	count=  x
# tb.monitor_blk time=10, clk=0,	rst=0,	en=1,	count=  x
# tb.monitor_blk time=15, clk=1,	rst=0,	en=1,	count=  0
# tb.monitor_blk time=20, clk=0,	rst=1,	en=1,	count=  0
# tb.monitor_blk time=25, clk=1,	rst=1,	en=1,	count=  1
# tb.monitor_blk time=30, clk=0,	rst=1,	en=x,	count=  1
# tb.monitor_blk time=35, clk=1,	rst=1,	en=x,	count=  1
# tb.monitor_blk time=40, clk=0,	rst=1,	en=1,	count=  1
# tb.monitor_blk time=45, clk=1,	rst=1,	en=1,	count=  2
# tb.monitor_blk time=50, clk=0,	rst=1,	en=1,	count=  2
# tb.monitor_blk time=55, clk=1,	rst=1,	en=1,	count=  3
# tb.monitor_blk time=60, clk=0,	rst=1,	en=1,	count=  3
# tb.monitor_blk time=65, clk=1,	rst=1,	en=1,	count=  4
# tb.monitor_blk time=70, clk=0,	rst=1,	en=z,	count=  4
# tb.monitor_blk time=75, clk=1,	rst=1,	en=z,	count=  4
# tb.monitor_blk time=80, clk=0,	rst=1,	en=z,	count=  4
# tb.monitor_blk time=85, clk=1,	rst=1,	en=z,	count=  4
# tb.monitor_blk time=90, clk=0,	rst=1,	en=z,	count=  4
# tb.monitor_blk time=95, clk=1,	rst=1,	en=z,	count=  4
# tb.monitor_blk time=100, clk=0,	rst=1,	en=z,	count=  4
# tb.monitor_blk time=105, clk=1,	rst=1,	en=z,	count=  4
# tb.monitor_blk time=110, clk=0,	rst=1,	en=1,	count=  4
# tb.monitor_blk time=115, clk=1,	rst=1,	en=1,	count=  5
# tb.monitor_blk time=120, clk=0,	rst=1,	en=1,	count=  5
# tb.monitor_blk time=125, clk=1,	rst=1,	en=1,	count=  6
# tb.monitor_blk time=130, clk=0,	rst=1,	en=1,	count=  6
# tb.monitor_blk time=135, clk=1,	rst=1,	en=1,	count=  7
# tb.monitor_blk time=140, clk=0,	rst=1,	en=1,	count=  7
# tb.monitor_blk time=145, clk=1,	rst=1,	en=1,	count=  8
# tb.monitor_blk time=150, clk=0,	rst=1,	en=1,	count=  8
# tb.monitor_blk time=155, clk=1,	rst=1,	en=1,	count=  9
# tb.monitor_blk time=160, clk=0,	rst=1,	en=1,	count=  9
# tb.monitor_blk time=165, clk=1,	rst=1,	en=1,	count= 10
# tb.monitor_blk time=170, clk=0,	rst=1,	en=1,	count= 10
# tb.monitor_blk time=175, clk=1,	rst=1,	en=1,	count= 11
# tb.monitor_blk time=180, clk=0,	rst=1,	en=1,	count= 11
# tb.monitor_blk time=185, clk=1,	rst=1,	en=1,	count= 12
# tb.monitor_blk time=190, clk=0,	rst=1,	en=1,	count= 12
# tb.monitor_blk time=195, clk=1,	rst=1,	en=1,	count= 13
# tb.monitor_blk time=200, clk=0,	rst=1,	en=1,	count= 13
# tb.monitor_blk time=205, clk=1,	rst=1,	en=1,	count= 14
# tb.monitor_blk time=210, clk=0,	rst=1,	en=1,	count= 14
# tb.monitor_blk time=215, clk=1,	rst=1,	en=1,	count= 15
# tb.monitor_blk time=220, clk=0,	rst=1,	en=1,	count= 15
# tb.monitor_blk time=225, clk=1,	rst=1,	en=1,	count= 16
# tb.monitor_blk time=230, clk=0,	rst=1,	en=1,	count= 16
# tb.monitor_blk time=235, clk=1,	rst=1,	en=1,	count= 17
# tb.monitor_blk time=240, clk=0,	rst=1,	en=1,	count= 17
# tb.monitor_blk time=245, clk=1,	rst=1,	en=1,	count= 18
# tb.monitor_blk time=250, clk=0,	rst=1,	en=1,	count= 18
# tb.monitor_blk time=255, clk=1,	rst=1,	en=1,	count= 19
# tb.monitor_blk time=260, clk=0,	rst=1,	en=1,	count= 19
# tb.monitor_blk time=265, clk=1,	rst=1,	en=1,	count= 20
# tb.monitor_blk time=270, clk=0,	rst=1,	en=1,	count= 20
# tb.monitor_blk time=275, clk=1,	rst=1,	en=1,	count= 21
# tb.monitor_blk time=280, clk=0,	rst=1,	en=1,	count= 21
# tb.monitor_blk time=285, clk=1,	rst=1,	en=1,	count= 22
# tb.monitor_blk time=290, clk=0,	rst=1,	en=1,	count= 22
# tb.monitor_blk time=295, clk=1,	rst=1,	en=1,	count= 23
# tb.monitor_blk time=300, clk=0,	rst=1,	en=1,	count= 23
# tb.monitor_blk time=305, clk=1,	rst=1,	en=1,	count= 24
# tb.monitor_blk time=310, clk=0,	rst=1,	en=1,	count= 24
# tb.monitor_blk time=315, clk=1,	rst=1,	en=1,	count= 25
# tb.monitor_blk time=320, clk=0,	rst=1,	en=1,	count= 25
# tb.monitor_blk time=325, clk=1,	rst=1,	en=1,	count= 26
# tb.monitor_blk time=330, clk=0,	rst=1,	en=1,	count= 26
# tb.monitor_blk time=335, clk=1,	rst=1,	en=1,	count= 27
# tb.monitor_blk time=340, clk=0,	rst=1,	en=1,	count= 27
# tb.monitor_blk time=345, clk=1,	rst=1,	en=1,	count= 28
# tb.monitor_blk time=350, clk=0,	rst=1,	en=1,	count= 28
# tb.monitor_blk time=355, clk=1,	rst=1,	en=1,	count= 29
# tb.monitor_blk time=360, clk=0,	rst=1,	en=1,	count= 29
# tb.monitor_blk time=365, clk=1,	rst=1,	en=1,	count= 30
# tb.monitor_blk time=370, clk=0,	rst=1,	en=1,	count= 30
# tb.monitor_blk time=375, clk=1,	rst=1,	en=1,	count= 31
# tb.monitor_blk time=380, clk=0,	rst=1,	en=1,	count= 31
# tb.monitor_blk time=385, clk=1,	rst=1,	en=1,	count= 32
# tb.monitor_blk time=390, clk=0,	rst=1,	en=1,	count= 32
# tb.monitor_blk time=395, clk=1,	rst=1,	en=1,	count= 33
# tb.monitor_blk time=400, clk=0,	rst=1,	en=1,	count= 33
# tb.monitor_blk time=405, clk=1,	rst=1,	en=1,	count= 34
# tb.monitor_blk time=410, clk=0,	rst=1,	en=1,	count= 34
# tb.monitor_blk time=415, clk=1,	rst=1,	en=1,	count= 35
# tb.monitor_blk time=420, clk=0,	rst=1,	en=1,	count= 35
# tb.monitor_blk time=425, clk=1,	rst=1,	en=1,	count= 36
# tb.monitor_blk time=430, clk=0,	rst=1,	en=1,	count= 36
# tb.monitor_blk time=435, clk=1,	rst=1,	en=1,	count= 37
# tb.monitor_blk time=440, clk=0,	rst=1,	en=1,	count= 37
# tb.monitor_blk time=445, clk=1,	rst=1,	en=1,	count= 38
# tb.monitor_blk time=450, clk=0,	rst=1,	en=1,	count= 38
# tb.monitor_blk time=455, clk=1,	rst=1,	en=1,	count= 39
# tb.monitor_blk time=460, clk=0,	rst=1,	en=1,	count= 39
# tb.monitor_blk time=465, clk=1,	rst=1,	en=1,	count= 40
# tb.monitor_blk time=470, clk=0,	rst=1,	en=1,	count= 40
# tb.monitor_blk time=475, clk=1,	rst=1,	en=1,	count= 41
# tb.monitor_blk time=480, clk=0,	rst=1,	en=1,	count= 41
# tb.monitor_blk time=485, clk=1,	rst=1,	en=1,	count= 42
# tb.monitor_blk time=490, clk=0,	rst=1,	en=1,	count= 42
# tb.monitor_blk time=495, clk=1,	rst=1,	en=1,	count= 43
# tb.monitor_blk time=500, clk=0,	rst=1,	en=1,	count= 43
# tb.monitor_blk time=505, clk=1,	rst=1,	en=1,	count= 44
# tb.monitor_blk time=510, clk=0,	rst=1,	en=1,	count= 44
# tb.monitor_blk time=515, clk=1,	rst=1,	en=1,	count= 45
# tb.monitor_blk time=520, clk=0,	rst=1,	en=1,	count= 45
# tb.monitor_blk time=525, clk=1,	rst=1,	en=1,	count= 46
# tb.monitor_blk time=530, clk=0,	rst=1,	en=1,	count= 46
# tb.monitor_blk time=535, clk=1,	rst=1,	en=1,	count= 47
# tb.monitor_blk time=540, clk=0,	rst=1,	en=1,	count= 47
# tb.monitor_blk time=545, clk=1,	rst=1,	en=1,	count= 48
# tb.monitor_blk time=550, clk=0,	rst=1,	en=1,	count= 48
# tb.monitor_blk time=555, clk=1,	rst=1,	en=1,	count= 49
# tb.monitor_blk time=560, clk=0,	rst=1,	en=1,	count= 49
# tb.monitor_blk time=565, clk=1,	rst=1,	en=1,	count= 50
# tb.monitor_blk time=570, clk=0,	rst=1,	en=1,	count= 50
# tb.monitor_blk time=575, clk=1,	rst=1,	en=1,	count= 51
# tb.monitor_blk time=580, clk=0,	rst=1,	en=1,	count= 51
# tb.monitor_blk time=585, clk=1,	rst=1,	en=1,	count= 52
# tb.monitor_blk time=590, clk=0,	rst=1,	en=1,	count= 52
# tb.monitor_blk time=595, clk=1,	rst=1,	en=1,	count= 53
# tb.monitor_blk time=600, clk=0,	rst=1,	en=1,	count= 53
# tb.monitor_blk time=605, clk=1,	rst=1,	en=1,	count= 54
# tb.monitor_blk time=610, clk=0,	rst=1,	en=1,	count= 54
# tb.monitor_blk time=615, clk=1,	rst=1,	en=1,	count= 55
# tb.monitor_blk time=620, clk=0,	rst=1,	en=1,	count= 55
# tb.monitor_blk time=625, clk=1,	rst=1,	en=1,	count= 56
# tb.monitor_blk time=630, clk=0,	rst=1,	en=1,	count= 56
# tb.monitor_blk time=635, clk=1,	rst=1,	en=1,	count= 57
# tb.monitor_blk time=640, clk=0,	rst=1,	en=1,	count= 57
# tb.monitor_blk time=645, clk=1,	rst=1,	en=1,	count= 58
# tb.monitor_blk time=650, clk=0,	rst=1,	en=1,	count= 58
# tb.monitor_blk time=655, clk=1,	rst=1,	en=1,	count= 59
# tb.monitor_blk time=660, clk=0,	rst=1,	en=1,	count= 59
# tb.monitor_blk time=665, clk=1,	rst=1,	en=1,	count= 60
# tb.monitor_blk time=670, clk=0,	rst=1,	en=1,	count= 60
# tb.monitor_blk time=675, clk=1,	rst=1,	en=1,	count= 61
# tb.monitor_blk time=680, clk=0,	rst=1,	en=1,	count= 61
# tb.monitor_blk time=685, clk=1,	rst=1,	en=1,	count= 62
# tb.monitor_blk time=690, clk=0,	rst=1,	en=1,	count= 62
# tb.monitor_blk time=695, clk=1,	rst=1,	en=1,	count= 63
# tb.monitor_blk time=700, clk=0,	rst=1,	en=1,	count= 63
# tb.monitor_blk time=705, clk=1,	rst=1,	en=1,	count= 64
# tb.monitor_blk time=710, clk=0,	rst=1,	en=1,	count= 64
# tb.monitor_blk time=715, clk=1,	rst=1,	en=1,	count= 65
# tb.monitor_blk time=720, clk=0,	rst=1,	en=1,	count= 65
# tb.monitor_blk time=725, clk=1,	rst=1,	en=1,	count= 66
# tb.monitor_blk time=730, clk=0,	rst=1,	en=1,	count= 66
# tb.monitor_blk time=735, clk=1,	rst=1,	en=1,	count= 67
# tb.monitor_blk time=740, clk=0,	rst=1,	en=1,	count= 67
# tb.monitor_blk time=745, clk=1,	rst=1,	en=1,	count= 68
# tb.monitor_blk time=750, clk=0,	rst=1,	en=1,	count= 68
# tb.monitor_blk time=755, clk=1,	rst=1,	en=1,	count= 69
# tb.monitor_blk time=760, clk=0,	rst=1,	en=1,	count= 69
# tb.monitor_blk time=765, clk=1,	rst=1,	en=1,	count= 70
# tb.monitor_blk time=770, clk=0,	rst=1,	en=1,	count= 70
# tb.monitor_blk time=775, clk=1,	rst=1,	en=1,	count= 71
# tb.monitor_blk time=780, clk=0,	rst=1,	en=1,	count= 71
# tb.monitor_blk time=785, clk=1,	rst=1,	en=1,	count= 72
# tb.monitor_blk time=790, clk=0,	rst=1,	en=1,	count= 72
# tb.monitor_blk time=795, clk=1,	rst=1,	en=1,	count= 73
# tb.monitor_blk time=800, clk=0,	rst=1,	en=1,	count= 73
# tb.monitor_blk time=805, clk=1,	rst=1,	en=1,	count= 74
# tb.monitor_blk time=810, clk=0,	rst=1,	en=1,	count= 74
# tb.monitor_blk time=815, clk=1,	rst=1,	en=1,	count= 75
# tb.monitor_blk time=820, clk=0,	rst=1,	en=1,	count= 75
# tb.monitor_blk time=825, clk=1,	rst=1,	en=1,	count= 76
# tb.monitor_blk time=830, clk=0,	rst=1,	en=1,	count= 76
# tb.monitor_blk time=835, clk=1,	rst=1,	en=1,	count= 77
# tb.monitor_blk time=840, clk=0,	rst=1,	en=1,	count= 77
# tb.monitor_blk time=845, clk=1,	rst=1,	en=1,	count= 78
# tb.monitor_blk time=850, clk=0,	rst=1,	en=1,	count= 78
# tb.monitor_blk time=855, clk=1,	rst=1,	en=1,	count= 79
# tb.monitor_blk time=860, clk=0,	rst=1,	en=1,	count= 79
# tb.monitor_blk time=865, clk=1,	rst=1,	en=1,	count= 80
# tb.monitor_blk time=870, clk=0,	rst=1,	en=1,	count= 80
# tb.monitor_blk time=875, clk=1,	rst=1,	en=1,	count= 81
# tb.monitor_blk time=880, clk=0,	rst=1,	en=1,	count= 81
# tb.monitor_blk time=885, clk=1,	rst=1,	en=1,	count= 82
# tb.monitor_blk time=890, clk=0,	rst=1,	en=1,	count= 82
# tb.monitor_blk time=895, clk=1,	rst=1,	en=1,	count= 83
# tb.monitor_blk time=900, clk=0,	rst=1,	en=1,	count= 83
# tb.monitor_blk time=905, clk=1,	rst=1,	en=1,	count= 84
# tb.monitor_blk time=910, clk=0,	rst=1,	en=1,	count= 84
# tb.monitor_blk time=915, clk=1,	rst=1,	en=1,	count= 85
# tb.monitor_blk time=920, clk=0,	rst=1,	en=1,	count= 85
# tb.monitor_blk time=925, clk=1,	rst=1,	en=1,	count= 86
# tb.monitor_blk time=930, clk=0,	rst=1,	en=1,	count= 86
# tb.monitor_blk time=935, clk=1,	rst=1,	en=1,	count= 87
# tb.monitor_blk time=940, clk=0,	rst=1,	en=1,	count= 87
# tb.monitor_blk time=945, clk=1,	rst=1,	en=1,	count= 88
# tb.monitor_blk time=950, clk=0,	rst=1,	en=1,	count= 88
# tb.monitor_blk time=955, clk=1,	rst=1,	en=1,	count= 89
# tb.monitor_blk time=960, clk=0,	rst=1,	en=1,	count= 89
# tb.monitor_blk time=965, clk=1,	rst=1,	en=1,	count= 90
# tb.monitor_blk time=970, clk=0,	rst=1,	en=1,	count= 90
# tb.monitor_blk time=975, clk=1,	rst=1,	en=1,	count= 91
# tb.monitor_blk time=980, clk=0,	rst=1,	en=1,	count= 91
# tb.monitor_blk time=985, clk=1,	rst=1,	en=1,	count= 92
# tb.monitor_blk time=990, clk=0,	rst=1,	en=1,	count= 92
# tb.monitor_blk time=995, clk=1,	rst=1,	en=1,	count= 93
# tb.monitor_blk time=1000, clk=0,	rst=1,	en=1,	count= 93
# tb.monitor_blk time=1005, clk=1,	rst=1,	en=1,	count= 94
# tb.monitor_blk time=1010, clk=0,	rst=1,	en=1,	count= 94
# tb.monitor_blk time=1015, clk=1,	rst=1,	en=1,	count= 95
# tb.monitor_blk time=1020, clk=0,	rst=1,	en=1,	count= 95
# tb.monitor_blk time=1025, clk=1,	rst=1,	en=1,	count= 96
# tb.monitor_blk time=1030, clk=0,	rst=1,	en=1,	count= 96
# tb.monitor_blk time=1035, clk=1,	rst=1,	en=1,	count= 97
# tb.monitor_blk time=1040, clk=0,	rst=1,	en=1,	count= 97
# tb.monitor_blk time=1045, clk=1,	rst=1,	en=1,	count= 98
# tb.monitor_blk time=1050, clk=0,	rst=1,	en=1,	count= 98
# tb.monitor_blk time=1055, clk=1,	rst=1,	en=1,	count= 99
# tb.monitor_blk time=1060, clk=0,	rst=1,	en=1,	count= 99
# tb.monitor_blk time=1065, clk=1,	rst=1,	en=1,	count=100
# tb.monitor_blk time=1070, clk=0,	rst=1,	en=1,	count=100
# tb.monitor_blk time=1075, clk=1,	rst=1,	en=1,	count=101
# tb.monitor_blk time=1080, clk=0,	rst=1,	en=1,	count=101
# tb.monitor_blk time=1085, clk=1,	rst=1,	en=1,	count=102
# tb.monitor_blk time=1090, clk=0,	rst=1,	en=1,	count=102
# tb.monitor_blk time=1095, clk=1,	rst=1,	en=1,	count=103
# tb.monitor_blk time=1100, clk=0,	rst=1,	en=1,	count=103
# tb.monitor_blk time=1105, clk=1,	rst=1,	en=1,	count=104
# tb.monitor_blk time=1110, clk=0,	rst=1,	en=1,	count=104
# tb.monitor_blk time=1115, clk=1,	rst=1,	en=1,	count=105
# tb.monitor_blk time=1120, clk=0,	rst=1,	en=1,	count=105
# tb.monitor_blk time=1125, clk=1,	rst=1,	en=1,	count=106
# tb.monitor_blk time=1130, clk=0,	rst=1,	en=1,	count=106
# tb.monitor_blk time=1135, clk=1,	rst=1,	en=1,	count=107
# tb.monitor_blk time=1140, clk=0,	rst=1,	en=1,	count=107
# tb.monitor_blk time=1145, clk=1,	rst=1,	en=1,	count=108
# tb.monitor_blk time=1150, clk=0,	rst=1,	en=1,	count=108
# tb.monitor_blk time=1155, clk=1,	rst=1,	en=1,	count=109
# tb.monitor_blk time=1160, clk=0,	rst=1,	en=1,	count=109
# tb.monitor_blk time=1165, clk=1,	rst=1,	en=1,	count=110
# tb.monitor_blk time=1170, clk=0,	rst=1,	en=1,	count=110
# tb.monitor_blk time=1175, clk=1,	rst=1,	en=1,	count=111
# tb.monitor_blk time=1180, clk=0,	rst=1,	en=1,	count=111
# tb.monitor_blk time=1185, clk=1,	rst=1,	en=1,	count=112
# tb.monitor_blk time=1190, clk=0,	rst=1,	en=1,	count=112
# tb.monitor_blk time=1195, clk=1,	rst=1,	en=1,	count=113
# tb.monitor_blk time=1200, clk=0,	rst=1,	en=1,	count=113
# tb.monitor_blk time=1205, clk=1,	rst=1,	en=1,	count=114
# tb.monitor_blk time=1210, clk=0,	rst=1,	en=1,	count=114
# tb.monitor_blk time=1215, clk=1,	rst=1,	en=1,	count=115
# tb.monitor_blk time=1220, clk=0,	rst=1,	en=1,	count=115
# tb.monitor_blk time=1225, clk=1,	rst=1,	en=1,	count=116
# tb.monitor_blk time=1230, clk=0,	rst=1,	en=1,	count=116
# tb.monitor_blk time=1235, clk=1,	rst=1,	en=1,	count=117
# tb.monitor_blk time=1240, clk=0,	rst=1,	en=1,	count=117
# tb.monitor_blk time=1245, clk=1,	rst=1,	en=1,	count=118
# tb.monitor_blk time=1250, clk=0,	rst=1,	en=1,	count=118
# tb.monitor_blk time=1255, clk=1,	rst=1,	en=1,	count=119
# tb.monitor_blk time=1260, clk=0,	rst=1,	en=1,	count=119
# tb.monitor_blk time=1265, clk=1,	rst=1,	en=1,	count=120
# tb.monitor_blk time=1270, clk=0,	rst=1,	en=1,	count=120
# tb.monitor_blk time=1275, clk=1,	rst=1,	en=1,	count=121
# tb.monitor_blk time=1280, clk=0,	rst=1,	en=1,	count=121
# tb.monitor_blk time=1285, clk=1,	rst=1,	en=1,	count=122
# tb.monitor_blk time=1290, clk=0,	rst=1,	en=1,	count=122
# tb.monitor_blk time=1295, clk=1,	rst=1,	en=1,	count=123
# tb.monitor_blk time=1300, clk=0,	rst=1,	en=1,	count=123
# tb.monitor_blk time=1305, clk=1,	rst=1,	en=1,	count=124
# tb.monitor_blk time=1310, clk=0,	rst=1,	en=1,	count=124
# tb.monitor_blk time=1315, clk=1,	rst=1,	en=1,	count=125
# tb.monitor_blk time=1320, clk=0,	rst=1,	en=1,	count=125
# tb.monitor_blk time=1325, clk=1,	rst=1,	en=1,	count=126
# tb.monitor_blk time=1330, clk=0,	rst=1,	en=1,	count=126
# tb.monitor_blk time=1335, clk=1,	rst=1,	en=1,	count=127
# tb.monitor_blk time=1340, clk=0,	rst=1,	en=1,	count=127
# tb.monitor_blk time=1345, clk=1,	rst=1,	en=1,	count=128
# tb.monitor_blk time=1350, clk=0,	rst=1,	en=1,	count=128
# tb.monitor_blk time=1355, clk=1,	rst=1,	en=1,	count=129
# tb.monitor_blk time=1360, clk=0,	rst=1,	en=1,	count=129
# tb.monitor_blk time=1365, clk=1,	rst=1,	en=1,	count=130
# tb.monitor_blk time=1370, clk=0,	rst=1,	en=1,	count=130
# tb.monitor_blk time=1375, clk=1,	rst=1,	en=1,	count=131
# tb.monitor_blk time=1380, clk=0,	rst=1,	en=1,	count=131
# tb.monitor_blk time=1385, clk=1,	rst=1,	en=1,	count=132
# tb.monitor_blk time=1390, clk=0,	rst=1,	en=1,	count=132
# tb.monitor_blk time=1395, clk=1,	rst=1,	en=1,	count=133
# tb.monitor_blk time=1400, clk=0,	rst=1,	en=1,	count=133
# tb.monitor_blk time=1405, clk=1,	rst=1,	en=1,	count=134
# tb.monitor_blk time=1410, clk=0,	rst=1,	en=1,	count=134
# tb.monitor_blk time=1415, clk=1,	rst=1,	en=1,	count=135
# tb.monitor_blk time=1420, clk=0,	rst=1,	en=1,	count=135
# tb.monitor_blk time=1425, clk=1,	rst=1,	en=1,	count=136
# tb.monitor_blk time=1430, clk=0,	rst=1,	en=1,	count=136
# tb.monitor_blk time=1435, clk=1,	rst=1,	en=1,	count=137
# tb.monitor_blk time=1440, clk=0,	rst=1,	en=1,	count=137
# tb.monitor_blk time=1445, clk=1,	rst=1,	en=1,	count=138
# tb.monitor_blk time=1450, clk=0,	rst=1,	en=1,	count=138
# tb.monitor_blk time=1455, clk=1,	rst=1,	en=1,	count=139
# tb.monitor_blk time=1460, clk=0,	rst=1,	en=1,	count=139
# tb.monitor_blk time=1465, clk=1,	rst=1,	en=1,	count=140
# tb.monitor_blk time=1470, clk=0,	rst=1,	en=1,	count=140
# tb.monitor_blk time=1475, clk=1,	rst=1,	en=1,	count=141
# tb.monitor_blk time=1480, clk=0,	rst=1,	en=1,	count=141
# tb.monitor_blk time=1485, clk=1,	rst=1,	en=1,	count=142
# tb.monitor_blk time=1490, clk=0,	rst=1,	en=1,	count=142
# tb.monitor_blk time=1495, clk=1,	rst=1,	en=1,	count=143
# tb.monitor_blk time=1500, clk=0,	rst=1,	en=1,	count=143
# tb.monitor_blk time=1505, clk=1,	rst=1,	en=1,	count=144
# tb.monitor_blk time=1510, clk=0,	rst=1,	en=1,	count=144
# tb.monitor_blk time=1515, clk=1,	rst=1,	en=1,	count=145
# tb.monitor_blk time=1520, clk=0,	rst=1,	en=1,	count=145
# tb.monitor_blk time=1525, clk=1,	rst=1,	en=1,	count=146
# tb.monitor_blk time=1530, clk=0,	rst=1,	en=1,	count=146
# tb.monitor_blk time=1535, clk=1,	rst=1,	en=1,	count=147
# tb.monitor_blk time=1540, clk=0,	rst=1,	en=1,	count=147
# tb.monitor_blk time=1545, clk=1,	rst=1,	en=1,	count=148
# tb.monitor_blk time=1550, clk=0,	rst=1,	en=1,	count=148
# tb.monitor_blk time=1555, clk=1,	rst=1,	en=1,	count=149
# tb.monitor_blk time=1560, clk=0,	rst=1,	en=1,	count=149
# tb.monitor_blk time=1565, clk=1,	rst=1,	en=1,	count=150
# tb.monitor_blk time=1570, clk=0,	rst=1,	en=1,	count=150
# tb.monitor_blk time=1575, clk=1,	rst=1,	en=1,	count=151
# tb.monitor_blk time=1580, clk=0,	rst=1,	en=1,	count=151
# tb.monitor_blk time=1585, clk=1,	rst=1,	en=1,	count=152
# tb.monitor_blk time=1590, clk=0,	rst=1,	en=1,	count=152
# tb.monitor_blk time=1595, clk=1,	rst=1,	en=1,	count=153
# tb.monitor_blk time=1600, clk=0,	rst=1,	en=1,	count=153
# tb.monitor_blk time=1605, clk=1,	rst=1,	en=1,	count=154
# tb.monitor_blk time=1610, clk=0,	rst=1,	en=1,	count=154
# tb.monitor_blk time=1615, clk=1,	rst=1,	en=1,	count=155
# tb.monitor_blk time=1620, clk=0,	rst=1,	en=1,	count=155
# tb.monitor_blk time=1625, clk=1,	rst=1,	en=1,	count=156
# tb.monitor_blk time=1630, clk=0,	rst=1,	en=1,	count=156
# tb.monitor_blk time=1635, clk=1,	rst=1,	en=1,	count=157
# tb.monitor_blk time=1640, clk=0,	rst=1,	en=1,	count=157
# tb.monitor_blk time=1645, clk=1,	rst=1,	en=1,	count=158
# tb.monitor_blk time=1650, clk=0,	rst=1,	en=1,	count=158
# tb.monitor_blk time=1655, clk=1,	rst=1,	en=1,	count=159
# tb.monitor_blk time=1660, clk=0,	rst=1,	en=1,	count=159
# tb.monitor_blk time=1665, clk=1,	rst=1,	en=1,	count=160
# tb.monitor_blk time=1670, clk=0,	rst=1,	en=1,	count=160
# tb.monitor_blk time=1675, clk=1,	rst=1,	en=1,	count=161
# tb.monitor_blk time=1680, clk=0,	rst=1,	en=1,	count=161
# tb.monitor_blk time=1685, clk=1,	rst=1,	en=1,	count=162
# tb.monitor_blk time=1690, clk=0,	rst=1,	en=1,	count=162
# tb.monitor_blk time=1695, clk=1,	rst=1,	en=1,	count=163
# tb.monitor_blk time=1700, clk=0,	rst=1,	en=1,	count=163
# tb.monitor_blk time=1705, clk=1,	rst=1,	en=1,	count=164
# tb.monitor_blk time=1710, clk=0,	rst=1,	en=1,	count=164
# tb.monitor_blk time=1715, clk=1,	rst=1,	en=1,	count=165
# tb.monitor_blk time=1720, clk=0,	rst=1,	en=1,	count=165
# tb.monitor_blk time=1725, clk=1,	rst=1,	en=1,	count=166
# tb.monitor_blk time=1730, clk=0,	rst=1,	en=1,	count=166
# tb.monitor_blk time=1735, clk=1,	rst=1,	en=1,	count=167
# tb.monitor_blk time=1740, clk=0,	rst=1,	en=1,	count=167
# tb.monitor_blk time=1745, clk=1,	rst=1,	en=1,	count=168
# tb.monitor_blk time=1750, clk=0,	rst=1,	en=1,	count=168
# tb.monitor_blk time=1755, clk=1,	rst=1,	en=1,	count=169
# tb.monitor_blk time=1760, clk=0,	rst=1,	en=1,	count=169
# tb.monitor_blk time=1765, clk=1,	rst=1,	en=1,	count=170
# tb.monitor_blk time=1770, clk=0,	rst=1,	en=1,	count=170
# tb.monitor_blk time=1775, clk=1,	rst=1,	en=1,	count=171
# tb.monitor_blk time=1780, clk=0,	rst=1,	en=1,	count=171
# tb.monitor_blk time=1785, clk=1,	rst=1,	en=1,	count=172
# tb.monitor_blk time=1790, clk=0,	rst=1,	en=1,	count=172
# tb.monitor_blk time=1795, clk=1,	rst=1,	en=1,	count=173
# tb.monitor_blk time=1800, clk=0,	rst=1,	en=1,	count=173
# tb.monitor_blk time=1805, clk=1,	rst=1,	en=1,	count=174
# tb.monitor_blk time=1810, clk=0,	rst=1,	en=1,	count=174
# tb.monitor_blk time=1815, clk=1,	rst=1,	en=1,	count=175
# tb.monitor_blk time=1820, clk=0,	rst=1,	en=1,	count=175
# tb.monitor_blk time=1825, clk=1,	rst=1,	en=1,	count=176
# tb.monitor_blk time=1830, clk=0,	rst=1,	en=1,	count=176
# tb.monitor_blk time=1835, clk=1,	rst=1,	en=1,	count=177
# tb.monitor_blk time=1840, clk=0,	rst=1,	en=1,	count=177
# tb.monitor_blk time=1845, clk=1,	rst=1,	en=1,	count=178
# tb.monitor_blk time=1850, clk=0,	rst=1,	en=1,	count=178
# tb.monitor_blk time=1855, clk=1,	rst=1,	en=1,	count=179
# tb.monitor_blk time=1860, clk=0,	rst=1,	en=1,	count=179
# tb.monitor_blk time=1865, clk=1,	rst=1,	en=1,	count=180
# tb.monitor_blk time=1870, clk=0,	rst=1,	en=1,	count=180
# tb.monitor_blk time=1875, clk=1,	rst=1,	en=1,	count=181
# tb.monitor_blk time=1880, clk=0,	rst=1,	en=1,	count=181
# tb.monitor_blk time=1885, clk=1,	rst=1,	en=1,	count=182
# tb.monitor_blk time=1890, clk=0,	rst=1,	en=1,	count=182
# tb.monitor_blk time=1895, clk=1,	rst=1,	en=1,	count=183
# tb.monitor_blk time=1900, clk=0,	rst=1,	en=1,	count=183
# tb.monitor_blk time=1905, clk=1,	rst=1,	en=1,	count=184
# tb.monitor_blk time=1910, clk=0,	rst=1,	en=1,	count=184
# tb.monitor_blk time=1915, clk=1,	rst=1,	en=1,	count=185
# tb.monitor_blk time=1920, clk=0,	rst=1,	en=1,	count=185
# tb.monitor_blk time=1925, clk=1,	rst=1,	en=1,	count=186
# tb.monitor_blk time=1930, clk=0,	rst=1,	en=1,	count=186
# tb.monitor_blk time=1935, clk=1,	rst=1,	en=1,	count=187
# tb.monitor_blk time=1940, clk=0,	rst=1,	en=1,	count=187
# tb.monitor_blk time=1945, clk=1,	rst=1,	en=1,	count=188
# tb.monitor_blk time=1950, clk=0,	rst=1,	en=1,	count=188
# tb.monitor_blk time=1955, clk=1,	rst=1,	en=1,	count=189
# tb.monitor_blk time=1960, clk=0,	rst=1,	en=1,	count=189
# tb.monitor_blk time=1965, clk=1,	rst=1,	en=1,	count=190
# tb.monitor_blk time=1970, clk=0,	rst=1,	en=1,	count=190
# tb.monitor_blk time=1975, clk=1,	rst=1,	en=1,	count=191
# tb.monitor_blk time=1980, clk=0,	rst=1,	en=1,	count=191
# tb.monitor_blk time=1985, clk=1,	rst=1,	en=1,	count=192
# tb.monitor_blk time=1990, clk=0,	rst=1,	en=1,	count=192
# tb.monitor_blk time=1995, clk=1,	rst=1,	en=1,	count=193
# tb.monitor_blk time=2000, clk=0,	rst=1,	en=1,	count=193
